…
## Adding missing grouping variables: `year`

mortality_top5 <- mortality_diff %>%
  group_by(region) %>%
  slice_max(order_by = change_mortality, n=5)

mortality_top5

## # A tibble: 32 x 5
## # Groups:   region [7]
##    region                country         year_1800 year_2021 change_mortality
##    <chr>                 <chr>               <dbl>     <dbl>            <dbl>
##  1 East Asia & Pacific   Singapore            29.1      85.4             56.3
##  2 East Asia & Pacific   Australia            34        83               49  
##  3 East Asia & Pacific   Thailand             30.4      79               48.6
##  4 East Asia & Pacific   Japan                36.4      84.8             48.4
##  5 East Asia & Pacific   New Zealand          34        82.2             48.2
##  6 Europe & Central Asia Italy                29.7      83.8             54.1
##  7 Europe & Central Asia Spain                29.5      83.6             54.1
##  8 Europe & Central Asia Sweden               32.2      83.1             50.9
##  9 Europe & Central Asia Kyrgyz Republic      23.9      73.3             49.4
## 10 Europe & Central Asia France               34        83.3             49.3
## # ... with 22 more rows

mortality_least5 <- mortality_diff %>%
  group_by(region) %>%
  slice_max(order_by = -change_mortality, n=5)

mortality_least5

## # A tibble: 32 x 5
## # Groups:   region [7]
##    region                country          year_1800 year_2021 change_mortality
##    <chr>                 <chr>                <dbl>     <dbl>            <dbl>
##  1 East Asia & Pacific   Papua New Guinea      31.5      59.3             27.8
##  2 East Asia & Pacific   Cambodia              35        70.9             35.9
##  3 East Asia & Pacific   Mongolia              31.8      69.7             37.9
##  4 East Asia & Pacific   Kiribati              24.9      63.3             38.4
##  5 East Asia & Pacific   Myanmar               30.8      69.5             38.7
##  6 Europe & Central Asia Ukraine               36.6      71               34.4
##  7 Europe & Central Asia Belarus               36.2      74.8             38.6
##  8 Europe & Central Asia Bulgaria              35.8      75.4             39.6
##  9 Europe & Central Asia Romania               35.7      75.7             40  
## 10 Europe & Central Asia Moldova               33.1      73.3             40.2
## # ... with 22 more rows
…
